Copyright 1986-2015 Xilinx, Inc. All Rights Reserved.
------------------------------------------------------------------------------------
| Tool Version : Vivado v.2015.4 (win64) Build 1412921 Wed Nov 18 09:43:45 MST 2015
| Date         : Fri Jul 08 00:24:59 2016
| Host         : Nausada running 64-bit major release  (build 9200)
| Command      : report_drc
------------------------------------------------------------------------------------

Report DRC

Table of Contents
-----------------
1. REPORT SUMMARY
2. REPORT DETAILS

1. REPORT SUMMARY
-----------------
            Netlist: netlist
          Floorplan: design_1
      Design limits: <entire design considered>
           Ruledeck: default
             Max violations: <unlimited>
             Violations found: 49

2. REPORT DETAILS
-----------------
PLIO-7#1 Warning
Placement Constraints Check for IO constraints  
An IO Bus FIXED_IO_mio[53:0] with more than one IO standard is found. Components associated with this bus are: LVCMOS33 (FIXED_IO_mio[15], FIXED_IO_mio[14], FIXED_IO_mio[13], FIXED_IO_mio[12], FIXED_IO_mio[11], FIXED_IO_mio[10], FIXED_IO_mio[9], FIXED_IO_mio[8], FIXED_IO_mio[7], FIXED_IO_mio[6], FIXED_IO_mio[5], FIXED_IO_mio[4], FIXED_IO_mio[3], FIXED_IO_mio[2], FIXED_IO_mio[1] (the first 15 of 16 listed)); LVCMOS18 (FIXED_IO_mio[53], FIXED_IO_mio[52], FIXED_IO_mio[51], FIXED_IO_mio[50], FIXED_IO_mio[49], FIXED_IO_mio[48], FIXED_IO_mio[47], FIXED_IO_mio[46], FIXED_IO_mio[45], FIXED_IO_mio[44], FIXED_IO_mio[43], FIXED_IO_mio[42], FIXED_IO_mio[41], FIXED_IO_mio[40], FIXED_IO_mio[39] (the first 15 of 38 listed)); 
Related violations: <none>

RPBF-3#1 Warning
IO port buffering is incomplete  
Device port GPIO_N[0] expects both input and output buffering but the buffers are incomplete.
Related violations: <none>

RPBF-3#2 Warning
IO port buffering is incomplete  
Device port GPIO_N[10] expects both input and output buffering but the buffers are incomplete.
Related violations: <none>

RPBF-3#3 Warning
IO port buffering is incomplete  
Device port GPIO_N[11] expects both input and output buffering but the buffers are incomplete.
Related violations: <none>

RPBF-3#4 Warning
IO port buffering is incomplete  
Device port GPIO_N[12] expects both input and output buffering but the buffers are incomplete.
Related violations: <none>

RPBF-3#5 Warning
IO port buffering is incomplete  
Device port GPIO_N[13] expects both input and output buffering but the buffers are incomplete.
Related violations: <none>

RPBF-3#6 Warning
IO port buffering is incomplete  
Device port GPIO_N[14] expects both input and output buffering but the buffers are incomplete.
Related violations: <none>

RPBF-3#7 Warning
IO port buffering is incomplete  
Device port GPIO_N[15] expects both input and output buffering but the buffers are incomplete.
Related violations: <none>

RPBF-3#8 Warning
IO port buffering is incomplete  
Device port GPIO_N[16] expects both input and output buffering but the buffers are incomplete.
Related violations: <none>

RPBF-3#9 Warning
IO port buffering is incomplete  
Device port GPIO_N[17] expects both input and output buffering but the buffers are incomplete.
Related violations: <none>

RPBF-3#10 Warning
IO port buffering is incomplete  
Device port GPIO_N[18] expects both input and output buffering but the buffers are incomplete.
Related violations: <none>

RPBF-3#11 Warning
IO port buffering is incomplete  
Device port GPIO_N[19] expects both input and output buffering but the buffers are incomplete.
Related violations: <none>

RPBF-3#12 Warning
IO port buffering is incomplete  
Device port GPIO_N[1] expects both input and output buffering but the buffers are incomplete.
Related violations: <none>

RPBF-3#13 Warning
IO port buffering is incomplete  
Device port GPIO_N[20] expects both input and output buffering but the buffers are incomplete.
Related violations: <none>

RPBF-3#14 Warning
IO port buffering is incomplete  
Device port GPIO_N[21] expects both input and output buffering but the buffers are incomplete.
Related violations: <none>

RPBF-3#15 Warning
IO port buffering is incomplete  
Device port GPIO_N[22] expects both input and output buffering but the buffers are incomplete.
Related violations: <none>

RPBF-3#16 Warning
IO port buffering is incomplete  
Device port GPIO_N[23] expects both input and output buffering but the buffers are incomplete.
Related violations: <none>

RPBF-3#17 Warning
IO port buffering is incomplete  
Device port GPIO_N[2] expects both input and output buffering but the buffers are incomplete.
Related violations: <none>

RPBF-3#18 Warning
IO port buffering is incomplete  
Device port GPIO_N[3] expects both input and output buffering but the buffers are incomplete.
Related violations: <none>

RPBF-3#19 Warning
IO port buffering is incomplete  
Device port GPIO_N[4] expects both input and output buffering but the buffers are incomplete.
Related violations: <none>

RPBF-3#20 Warning
IO port buffering is incomplete  
Device port GPIO_N[5] expects both input and output buffering but the buffers are incomplete.
Related violations: <none>

RPBF-3#21 Warning
IO port buffering is incomplete  
Device port GPIO_N[6] expects both input and output buffering but the buffers are incomplete.
Related violations: <none>

RPBF-3#22 Warning
IO port buffering is incomplete  
Device port GPIO_N[7] expects both input and output buffering but the buffers are incomplete.
Related violations: <none>

RPBF-3#23 Warning
IO port buffering is incomplete  
Device port GPIO_N[8] expects both input and output buffering but the buffers are incomplete.
Related violations: <none>

RPBF-3#24 Warning
IO port buffering is incomplete  
Device port GPIO_N[9] expects both input and output buffering but the buffers are incomplete.
Related violations: <none>

RPBF-3#25 Warning
IO port buffering is incomplete  
Device port GPIO_P[0] expects both input and output buffering but the buffers are incomplete.
Related violations: <none>

RPBF-3#26 Warning
IO port buffering is incomplete  
Device port GPIO_P[10] expects both input and output buffering but the buffers are incomplete.
Related violations: <none>

RPBF-3#27 Warning
IO port buffering is incomplete  
Device port GPIO_P[11] expects both input and output buffering but the buffers are incomplete.
Related violations: <none>

RPBF-3#28 Warning
IO port buffering is incomplete  
Device port GPIO_P[12] expects both input and output buffering but the buffers are incomplete.
Related violations: <none>

RPBF-3#29 Warning
IO port buffering is incomplete  
Device port GPIO_P[13] expects both input and output buffering but the buffers are incomplete.
Related violations: <none>

RPBF-3#30 Warning
IO port buffering is incomplete  
Device port GPIO_P[14] expects both input and output buffering but the buffers are incomplete.
Related violations: <none>

RPBF-3#31 Warning
IO port buffering is incomplete  
Device port GPIO_P[15] expects both input and output buffering but the buffers are incomplete.
Related violations: <none>

RPBF-3#32 Warning
IO port buffering is incomplete  
Device port GPIO_P[16] expects both input and output buffering but the buffers are incomplete.
Related violations: <none>

RPBF-3#33 Warning
IO port buffering is incomplete  
Device port GPIO_P[17] expects both input and output buffering but the buffers are incomplete.
Related violations: <none>

RPBF-3#34 Warning
IO port buffering is incomplete  
Device port GPIO_P[18] expects both input and output buffering but the buffers are incomplete.
Related violations: <none>

RPBF-3#35 Warning
IO port buffering is incomplete  
Device port GPIO_P[19] expects both input and output buffering but the buffers are incomplete.
Related violations: <none>

RPBF-3#36 Warning
IO port buffering is incomplete  
Device port GPIO_P[1] expects both input and output buffering but the buffers are incomplete.
Related violations: <none>

RPBF-3#37 Warning
IO port buffering is incomplete  
Device port GPIO_P[20] expects both input and output buffering but the buffers are incomplete.
Related violations: <none>

RPBF-3#38 Warning
IO port buffering is incomplete  
Device port GPIO_P[21] expects both input and output buffering but the buffers are incomplete.
Related violations: <none>

RPBF-3#39 Warning
IO port buffering is incomplete  
Device port GPIO_P[22] expects both input and output buffering but the buffers are incomplete.
Related violations: <none>

RPBF-3#40 Warning
IO port buffering is incomplete  
Device port GPIO_P[23] expects both input and output buffering but the buffers are incomplete.
Related violations: <none>

RPBF-3#41 Warning
IO port buffering is incomplete  
Device port GPIO_P[2] expects both input and output buffering but the buffers are incomplete.
Related violations: <none>

RPBF-3#42 Warning
IO port buffering is incomplete  
Device port GPIO_P[3] expects both input and output buffering but the buffers are incomplete.
Related violations: <none>

RPBF-3#43 Warning
IO port buffering is incomplete  
Device port GPIO_P[4] expects both input and output buffering but the buffers are incomplete.
Related violations: <none>

RPBF-3#44 Warning
IO port buffering is incomplete  
Device port GPIO_P[5] expects both input and output buffering but the buffers are incomplete.
Related violations: <none>

RPBF-3#45 Warning
IO port buffering is incomplete  
Device port GPIO_P[6] expects both input and output buffering but the buffers are incomplete.
Related violations: <none>

RPBF-3#46 Warning
IO port buffering is incomplete  
Device port GPIO_P[7] expects both input and output buffering but the buffers are incomplete.
Related violations: <none>

RPBF-3#47 Warning
IO port buffering is incomplete  
Device port GPIO_P[8] expects both input and output buffering but the buffers are incomplete.
Related violations: <none>

RPBF-3#48 Warning
IO port buffering is incomplete  
Device port GPIO_P[9] expects both input and output buffering but the buffers are incomplete.
Related violations: <none>


